4.230539950561523597e+02
3.158362731933593892e+01
1.847961557388305565e+01
1.653185505867004323e+01
1.526559530258178654e+01
1.415635322570800803e+01
1.316841430664062429e+01
1.233561472892761302e+01
1.178769805908203061e+01
1.127770072937011747e+01
1.069289966583252038e+01
1.031167840003967306e+01
1.005566740036010742e+01
9.869381914138793732e+00
9.448551521301268963e+00
9.394205293655396360e+00
9.095711307525634837e+00
9.007196760177611949e+00
8.762941389083861665e+00
8.674386463165284056e+00
8.612496228218079253e+00
8.564501247406006712e+00
8.363953623771667623e+00
8.374446258544921307e+00
8.215019545555115599e+00
8.398033404350281117e+00
7.897068963050842605e+00
7.845681138038635538e+00
7.816758737564087234e+00
7.773288760185241841e+00
7.775959563255310236e+00
7.686037492752075373e+00
7.699306468963623473e+00
7.718721327781676855e+00
7.651031675338745508e+00
7.561220598220825373e+00
7.508316650390624680e+00
7.641230487823486683e+00
7.548300328254700098e+00
7.440927233695983745e+00
7.341546173095703232e+00
7.291740746498107661e+00
7.239520778656006073e+00
7.231855883598327317e+00
7.148573956489562953e+00
7.148772702217102371e+00
7.131007375717163477e+00
7.029190740585327113e+00
6.988229212760924902e+00
6.972134709358215332e+00
